a1.R
…
# Find errors source
# Errors are from wrong idmen in datind2013.
datind2013 <- read_datind("datind2013.csv")
datind2013 %>% select(-idmen) %>% distinct() %>% check_unique_idind_row

## [1] TRUE

# Duplicate idind have different idmen.
# In fact, idind already implictly contain its idmen (in the middle part of idind)
# So we should find that the wrong idmen = true idmen + 1 
duplicate_ind_logi <- duplicated(datind2013$idind)
duplicate_ind <- datind2013 %>% filter(duplicate_ind_logi) %>% select(idind, idmen)
duplicate_ind

## # A tibble: 32 x 2
##    idind               idmen           
##    <fct>               <fct>           
##  1 1200795307362010003 2007953073620101
##  2 1200795307362010004 2007953073620101
##  3 1200811611575010003 2008116115750101
##  4 1210466103063010004 2104661030630101
##  5 1220104212114010003 2201042121140101
##  6 1220091301027010003 2200913010270101
##  7 1230224311845010003 2302243118450101
##  8 1230224303959010003 2302243039590101
##  9 1230224303959010004 2302243039590101
## 10 1230049310906010003 2300493109060101
## # ... with 22 more rows
…
## [1] 25510

## 1.4
temp_data <- read_datind("datind2016.csv")
temp_data %>% filter(age >= 25 & age <= 35) %>% nrow()

## [1] 2765

## 1.5
temp_data <- read_datind("datind2009.csv")
temp_data %>%
  count(profession, gender) %>% 
  pivot_wider(names_from = gender,values_from = n)

## # A tibble: 33 x 3
##    profession  Male Female
##    <fct>      <int>  <int>
##  1 63           520     35
##  2 37           260    179
##  3 38           368     78
##  4 54            98    584
##  5 48           215     22
##  6 46           340    410
##  7 52           169    782
##  8 55           101    353
##  9 34           142    184
## 10 47           429     82
## # ... with 23 more rows
…
